﻿0INE140/160-1,15000,4,1.2,1							
10IE160-2,6500,4,1.2,1							
11IE160-1,3000,4,1.2,1							
12IE160-2,4500,4,1.2,1							
13IE160-1,2500,4,1.2,1							
14IE160-1,4000,4,1.2,1							
15IE160-1,2000,4,1.2,1							
1INE140/160-1,10000,4,1.2,1							
2INE140/160-1,15000,4,1.2,1							
4INE160-2,4500,4,1.2,1							
6INE160-1,5000,4,1.2,1							
7INE160-2,5000,4,1.2,1							
8INE160-2,5000,4,1.2,1								
9IE160-1,4500,4,1.2,1							
